digraph CompoTypes
{
  edge[dir=back, penwidth=0.8];
  Compo[label = "{Composant | {<b>}}", shape=record];
  Module[label = "{Module | {<b>}}", shape=record];
  Config[label = "{Configuration | {<b>}}", shape=record];
  Interface[label = "{Interface | {<b>}}", shape=record];
  Func[label = "{Fonction | {<b>}}", shape=record];

  Compo->Config[arrowtail=onormal];
  Compo->Module[arrowtail=onormal];

  Config->Module[headlabel = " *", arrowtail=odiamond];

  Interface->Compo[label=" utilise", arrowtail=vee];
  Interface->Compo[label=" fournit", arrowtail=vee];

  Func->Interface[headlabel = " *", arrowtail=diamond];
  
  {rank=same; Config, Module}
  {rank=same; Compo, Interface, Func}
}
